{
    "Description": "example description",
    "ModelDataPath": "modeldata.txt",
    "Name": "New model",
    "PasteLink": "",
    "PermamentLink": false,
    "RobloxPlacePath": "Place",
    "ThumbnailPath": "thumbnail"
}
